// Jest Snapshot v1, https://goo.gl/fbAQLP

exports[`Render DomainList without crashing 1`] = `
<div>
  <div
    class="row"
  >
    <p
      class="domainPosition"
    >
      1
    </p>
    <p
      class="domainName"
      data-testid="domainListName0"
    >
      domain.1
    </p>
    <div
      class="removeButton"
      data-testid="domainListRemove0"
    >
      <svg
        aria-hidden="true"
        class="MuiSvgIcon-root icon-regular"
        focusable="false"
        role="presentation"
        viewBox="0 0 24 24"
      >
        <path
          d="M6 19c0 1.1.9 2 2 2h8c1.1 0 2-.9 2-2V7H6v12zM19 4h-3.5l-1-1h-5l-1 1H5v2h14V4z"
        />
      </svg>
    </div>
  </div>
  <div
    class="row"
  >
    <p
      class="domainPosition"
    >
      2
    </p>
    <p
      class="domainName"
      data-testid="domainListName1"
    >
      domain.2
    </p>
    <div
      class="removeButton"
      data-testid="domainListRemove1"
    >
      <svg
        aria-hidden="true"
        class="MuiSvgIcon-root icon-regular"
        focusable="false"
        role="presentation"
        viewBox="0 0 24 24"
      >
        <path
          d="M6 19c0 1.1.9 2 2 2h8c1.1 0 2-.9 2-2V7H6v12zM19 4h-3.5l-1-1h-5l-1 1H5v2h14V4z"
        />
      </svg>
    </div>
  </div>
  <div
    class="row"
  >
    <p
      class="domainPosition"
    >
      3
    </p>
    <p
      class="domainName"
      data-testid="domainListName2"
    >
      domain.3.sample
    </p>
    <div
      class="removeButton"
      data-testid="domainListRemove2"
    >
      <svg
        aria-hidden="true"
        class="MuiSvgIcon-root icon-regular"
        focusable="false"
        role="presentation"
        viewBox="0 0 24 24"
      >
        <path
          d="M6 19c0 1.1.9 2 2 2h8c1.1 0 2-.9 2-2V7H6v12zM19 4h-3.5l-1-1h-5l-1 1H5v2h14V4z"
        />
      </svg>
    </div>
  </div>
</div>
`;

exports[`default props 1`] = `
<div>
  <div
    class="row"
  >
    <p
      class="domainPosition"
    >
      1
    </p>
    <p
      class="domainName"
      data-testid="domainListName0"
    >
      domain.1
    </p>
    <div
      class="removeButton"
      data-testid="domainListRemove0"
    >
      <svg
        aria-hidden="true"
        class="MuiSvgIcon-root icon-regular"
        focusable="false"
        role="presentation"
        viewBox="0 0 24 24"
      >
        <path
          d="M6 19c0 1.1.9 2 2 2h8c1.1 0 2-.9 2-2V7H6v12zM19 4h-3.5l-1-1h-5l-1 1H5v2h14V4z"
        />
      </svg>
    </div>
  </div>
  <div
    class="row"
  >
    <p
      class="domainPosition"
    >
      2
    </p>
    <p
      class="domainName"
      data-testid="domainListName1"
    >
      domain.2
    </p>
    <div
      class="removeButton"
      data-testid="domainListRemove1"
    >
      <svg
        aria-hidden="true"
        class="MuiSvgIcon-root icon-regular"
        focusable="false"
        role="presentation"
        viewBox="0 0 24 24"
      >
        <path
          d="M6 19c0 1.1.9 2 2 2h8c1.1 0 2-.9 2-2V7H6v12zM19 4h-3.5l-1-1h-5l-1 1H5v2h14V4z"
        />
      </svg>
    </div>
  </div>
  <div
    class="row"
  >
    <p
      class="domainPosition"
    >
      3
    </p>
    <p
      class="domainName"
      data-testid="domainListName2"
    >
      domain.3.sample
    </p>
    <div
      class="removeButton"
      data-testid="domainListRemove2"
    >
      <svg
        aria-hidden="true"
        class="MuiSvgIcon-root icon-regular"
        focusable="false"
        role="presentation"
        viewBox="0 0 24 24"
      >
        <path
          d="M6 19c0 1.1.9 2 2 2h8c1.1 0 2-.9 2-2V7H6v12zM19 4h-3.5l-1-1h-5l-1 1H5v2h14V4z"
        />
      </svg>
    </div>
  </div>
</div>
`;
